{
    "restaurant_name": "Boishakhi Restaurant",
    "city": "Dhaka",
    "address": "Uttara, Dhaka",
    "latlng": {"lat": 25.23434,
               "lng": 74.343234},
    "phone_number": "883453465782",
    "status": "open",
    "opening-hour": 1000,
    "closing-hour": 2400,
    "open-24-hours": False,
    "menu": {}
}
